{
  "type": "service_account",
  "project_id": "traffic-alert-2d",
  "private_key_id": "d9d2d4fd590928b52b83814a2d99064b4b1c6e11",
  "private_key": "-----BEGIN PRIVATE KEY-----\nMIIEvQIBADANBgkqhkiG9w0BAQEFAASCBKcwggSjAgEAAoIBAQDHf2C9cz/Mhwsk\ndpZlWhKN0Vp0tQyOWdfZYMRXb8JCE4bKoLWhf7dI5LEg7QBd9IGVVMaNxvm238HC\n8UDo+9vyaq3W/+D2KX1z2is12u/n032O1JYVYHajI3EEgkbPMjPw4WvslzgXXUQM\nXWMgV5d6y3hyy2vjzjrYE8IZCdb3X/Ay9rZRPMk+rWs/Nf9YGTEEhf6TSjRFz3qg\nxvlvIhsRhPVbfNM4cOPHPz4ANzyZ95S2Ui60iCSjpZ7GOAyVHFbER//H+/GKI1AB\nyl/LrNVjH6Lpfqtab3S8ouevVYSA2EkHFu5PnNKFtMVY9PypZUTZdRThyFSoyUFd\nu+1kfQX1AgMBAAECggEAEXuS739MUcDq487lpquiUR3N4sjj+QycCx99DVmMqUw7\nRYIYcLb3ybJK6IMEg3dULNFBVjbf9tv8h7grM0+xCnk5U0xYu1HO/epaW42cdRE2\nYWA1Z9msg+bs9lNxX6J7ZUpn8hOddYS1nCzJ7VFnw7nVjB/SDGRsCTgQDDAtz79H\nuFrblFB0musPtZOnlYpnJbxxkeBnP5EeufWGocdkfI0yHKtPbI8cYqtK1S3DZJmH\nKIGHM/iipOjwB6UkmhmTpqsavQ0CUvGkIH6H5Y8zf1t3NAodvLJSYEahLiMtgtRk\nn5vX5MeRZaMQLq6OPz10ZI8uMyUthS8qHon6DgAcuQKBgQDma45FbVqjafQlBvbP\n4ZXcCtcpBFgIxJbfeYdU/fAttk6aepvtEn0znCJgJZbj1PhnzBhXXVnwNj9OtOUY\ncxFgPvDM6r9pr3glnzGPQ6wPkL841iV8nN8Eva2Kx3xXbKb8MddYGwUZaa28xY+B\nn/6IBWi80fXjhCFgX6Av9wwtjQKBgQDdpQP/ClO0LDcXDd/EdyBhWX2nxxaU1alS\nIFbqxxDdGbPeRxREN2xi1MD0bpukGDsxrs/BuN8reiIPuKiUn0m5JIDS6V8xTfjd\nu+e6B0qBwSw0S/cpu/fS4+myll+PbmR5JpNDZ1Sv3MR7OHGNXaMm3pB+mpYoyIkF\nJO2XKWQcCQKBgQCT4aGco1NRn7WmcfLDdkdkwrxWQchyUCF4aZnWjWexHtkRwfEC\n1SPvlJxnUpilvlBy5YUVxP7s8RPuYqDJ8UfMmniXO23/2TLmCmaXSNpL3x0q0B2c\n/V0QwN95OxBtV3lQUHihvi2morFzfuPcUJ/eEoKm9KW4EFwPay/2uLpjHQKBgAa6\n6gImiCAib5HNpAvNKjiKhRxBGVhvnHKX9MuwO7za+PE4606e+DWQDEPfz+4Npk59\n5mUVfgFN9hbQHp5Ur+JlT1wYJgHTQklJWWH2srZ57SOxYtHrmTzYGtKHamNqkLZ1\nC2eyjYnBhF3RevE19KxLecu+WeznGfIECwraAOYxAoGAHJ3oivmCE/ezgkTiDl4r\nhZHSOeNeklQFzezv6y/Tb8yp0LIa47oJdKUJQvMJyaeKGGz8rX09TY0RB2NBpzpo\nBrOKetB4OexLpWE8skBNGJO/bToRpI2TmE5LUtv421II08M+PBEyTwA81FzhwVOq\ng2ekl9uQ5ck+mmYT4H6QC9g=\n-----END PRIVATE KEY-----\n",
  "client_email": "firebase-adminsdk-fc897@traffic-alert-2d.iam.gserviceaccount.com",
  "client_id": "112136187651959765837",
  "auth_uri": "https://accounts.google.com/o/oauth2/auth",
  "token_uri": "https://accounts.google.com/o/oauth2/token",
  "auth_provider_x509_cert_url": "https://www.googleapis.com/oauth2/v1/certs",
  "client_x509_cert_url": "https://www.googleapis.com/robot/v1/metadata/x509/firebase-adminsdk-fc897%40traffic-alert-2d.iam.gserviceaccount.com"
}
